{
    "name": "dbl",
    "description": "Only blocking the actual shit you want.",
    "homeurl": "dbl.oisd.nl/",
    "frequency": "frequently",
    "issues": "mailto:nah@nah",
    "url": "https://hosts.oisd.nl/"
}


